{"properties": [
  {
    "name": "properties.tagsbyweather",
    "type": "java.lang.String",
    "description": "A description for 'properties.tagsbyweather'"
  },
  {
    "name": "properties.apis",
    "type": "java.lang.String",
    "description": "A description for 'properties.apis'"
  },
  {
    "name": "properties.tags",
    "type": "java.lang.String",
    "description": "A description for 'properties.tags'"
  },
  {
    "name": "properties.town",
    "type": "java.lang.String",
    "description": "A description for 'properties.town'"
  }
]}